{
  "builders": [
    {
      "type"  : "amazon-ebs",
      "region": "us-east-1",
      "instance_type": "c5a.xlarge",
      "ssh_username": "ec2-user",
      "ami_name": "DISOC-RedHat-golden-image-new",
      "source_ami":"ami-06ddda30705fc919a",
      "subnet_id": "subnet-066519ab11d85d771",
      "ssh_keypair_name" : "DISOC-key",
      "security_group_id" : "sg-0ec260d4c9bcd6294",
      "launch_block_device_mappings" : [
        {
          "device_name": "/dev/sda1",
          "encrypted": true,
          "kms_key_id": "6989d7f9-3cf8-4f27-81aa-108402a6f461"
        }
      ],
      "ssh_private_key_file" : "C:\\Users\\nvenkatasainitish\\Desktop\\CMS\\Projects\\Digital Identity - SOC\\DISOC-key.pem"
    }
  ],
  "provisioners": [
    {
      "type": "shell",
      "inline": [
        "sudo DD_AGENT_MAJOR_VERSION=7 DD_API_KEY=3acaea18ba378e36e1b1dff61d94018c DD_SITE=\"datadoghq.com\" bash -c \"$(curl -L https://s3.amazonaws.com/dd-agent/scripts/install_script.sh)\""
      ]
    },
    {
      "type": "file",
      "source": ".\\datadog.yaml",
      "destination": "/tmp/datadog.yaml"
    },
    {
      "type": "shell",
      "inline": "sudo mv /tmp/datadog.yaml /etc/datadog-agent/datadog.yaml"
    },
    {
      "type": "file",
      "source": ".\\conf.yaml.default",
      "destination": "/tmp/conf.yaml.default"
    },
    {
      "type": "shell",
      "inline": "sudo mv /tmp/conf.yaml.default /etc/datadog-agent/conf.d/disk.d/conf.yaml.default"
    },
    {
      "type": "shell",
      "inline": "sudo service datadog-agent restart"
    },
    {
      "type": "shell",
      "inline": "sudo yum update -y"
    },
    {
      "type": "shell",
      "inline": "sudo yum install -y https://s3.amazonaws.com/ec2-downloads-windows/SSMAgent/latest/linux_amd64/amazon-ssm-agent.rpm"
    },
    {
      "type": "shell",
      "inline": "sudo systemctl start amazon-ssm-agent"
    },
    {
      "type": "shell",
      "inline": "sudo systemctl enable amazon-ssm-agent"
    }
  ]
}
